{
    "data": 
    {
        "orders" :[
    {
        "adultNumber": 1,
        "amount" : 1841,
        "childNumber": 0,
        "contactMobile": "1526",
        "contactName": "cd",
        "createdAt": "2019-08-08T01:24:49.748Z",
        "from": {
            "arrAirport": "CNX",
            "arrTime": "201702211705",
            "depAirport": "DMK",
            "depTime": "201702211550"
        },
        "orderId": "2d4c3bee-7570-4b59-8475-c3fc30c0bd15",
        "pnrCode": "JcFDbQ",
        "status": "PNR",
        "tripType": 1,
        "updatedAt": "2019-08-08T01:24:49.748Z",
        "userId": "test@test.com"
    },
    {
        "adultNumber": 1,
        "amount" : 1841,
        "childNumber": 0,
        " contactMobile": "1526",
        "contactName": "cd",
        "createdAt": "2019-08-06T04:04:02.150Z",
        "from": {
            "arrAirport": "CNX",
            "arrTime": "201702211705",
            "depAirport": "DMK",
            "depTime": "201702211550"
        },
        "orderId": "b51eea0b-cb80-4916-b06e-0361df0f7149",
        "pnrCode": "JcFDbQ",
        "status": "PNR",
        "tripType": 1,
        "updatedAt": "2019-08-08T01:24:49.748Z",
        "userId": "test@test.com"
    },
    {
        "adultNumber": 1,
        "amount" : 1841,
        "childNumber": 0,
        " contactMobile": "1526",
        "contactName": "cd",
        "createdAt": "2019-08-06T03:53:55.297Z",
        "from": {
            "arrAirport": "CNX",
            "arrTime": "201702211705",
            "depAirport": "DMK",
            "depTime": "201702211550"
        },
        "orderId": "9da0f5ab-640e-4d16-ad59-8cc11fa3341f",
        "pnrCode": "JcFDbQ",
        "status": "PNR",
        "tripType": 1,
        "updatedAt": "2019-08-08T01:24:49.748Z",
        "userId": "test@test.com"
    }
],
        "page":1,
        "size":10,
        "total":43,
        "total_page":5
    },
    "err_code": 0,
    "msg": "success"
    }